{
  "base_url": "/user/xoyocarry-mt15-2021-tp3-xyhzk8r2/",
  "hostname": "0.0.0.0",
  "notebook_dir": "/home/jovyan",
  "password": false,
  "pid": 18,
  "port": 8888,
  "secure": false,
  "sock": "",
  "token": "JlbO7lgfQW-cfCbChz4N4A",
  "url": "http://0.0.0.0:8888/user/xoyocarry-mt15-2021-tp3-xyhzk8r2/"
}